[{
	imestamp: 15:22:57,
	PACK_CONFIG: 207,
},
{
	imestamp: 15:22:58,
	LAST_CHARGE: 2000/01/01 00:06:32 039%,
	BATTERY_HEART_BEAT: 5,
	CYCLE_COUNT: 0,
	OV: 0, UV:0, COC:0, DOC:0, OT:0, UT:0, SC:0,
	FULL_CHARGE_CAPACITY: 32000,
	REMAIN_CAPACITY: 7268,
	CAN_batteryId: 17380500,
	CAN_PACK_STATE: Idle,
	SOC: 22,
	CAN_CURRENT: 0,
	TEMPERATURE: 27.6,
	TOTAL_VOLT: 69414,
},
{
	imestamp: 15:22:59,
	LAST_CHARGE: 2000/01/01 00:06:32 039%,
	BATTERY_HEART_BEAT: 5,
	CYCLE_COUNT: 0,
	OV: 0, UV:0, COC:0, DOC:0, OT:0, UT:0, SC:0,
	FULL_CHARGE_CAPACITY: 32000,
	REMAIN_CAPACITY: 7268,
	CAN_batteryId: 17380500,
	CAN_PACK_STATE: Idle,
	SOC: 22,
	CAN_CURRENT: 0,
	TEMPERATURE: 27.6,
	TOTAL_VOLT: 69414,
},
{
	imestamp: 15:23:00,
	LAST_CHARGE: 2000/01/01 00:06:32 039%,
	BATTERY_HEART_BEAT: 5,
	CYCLE_COUNT: 0,
	OV: 0, UV:0, COC:0, DOC:0, OT:0, UT:0, SC:0,
	FULL_CHARGE_CAPACITY: 32000,
	REMAIN_CAPACITY: 7268,
	CAN_batteryId: 17380500,
	CAN_PACK_STATE: Idle,
	SOC: 22,
	CAN_CURRENT: 0,
	TEMPERATURE: 27.6,
	TOTAL_VOLT: 69414,
},
{
	imestamp: 15:23:01,
	LAST_CHARGE: 2000/01/01 00:06:32 039%,
	BATTERY_HEART_BEAT: 5,
	CYCLE_COUNT: 0,
	OV: 0, UV:0, COC:0, DOC:0, OT:0, UT:0, SC:0,
	FULL_CHARGE_CAPACITY: 32000,
	REMAIN_CAPACITY: 7268,
	CAN_batteryId: 17380500,
	CAN_PACK_STATE: Idle,
	SOC: 22,
	CAN_CURRENT: 0,
	TEMPERATURE: 27.6,
	TOTAL_VOLT: 69414,
},
{
	imestamp: 15:23:02,
	LAST_CHARGE: 2000/01/01 00:06:32 039%,
	BATTERY_HEART_BEAT: 5,
	CYCLE_COUNT: 0,
	OV: 0, UV:0, COC:0, DOC:0, OT:0, UT:0, SC:0,
	FULL_CHARGE_CAPACITY: 32000,
	REMAIN_CAPACITY: 7268,
	CAN_batteryId: 17380500,
	CAN_PACK_STATE: Idle,
	SOC: 22,
	CAN_CURRENT: 0,
	TEMPERATURE: 27.6,
	TOTAL_VOLT: 69414,
},
{
	imestamp: 15:23:03,
	BATTERY_HEART_BEAT: 5,
	CYCLE_COUNT: 0,
	OV: 0, UV:0, COC:0, DOC:0, OT:0, UT:0, SC:0,
	FULL_CHARGE_CAPACITY: 32000,
	REMAIN_CAPACITY: 7268,
	CAN_batteryId: 17380500,
	CAN_PACK_STATE: Idle,
	SOC: 22,
	CAN_CURRENT: 0,
	TEMPERATURE: 27.6,
	TOTAL_VOLT: 69414,
	LAST_CHARGE: 2000/01/01 00:06:32 039%,
},
{
	imestamp: 15:23:04,
	BATTERY_HEART_BEAT: 5,
	CYCLE_COUNT: 0,
	OV: 0, UV:0, COC:0, DOC:0, OT:0, UT:0, SC:0,
	FULL_CHARGE_CAPACITY: 32000,
	REMAIN_CAPACITY: 7268,
	CAN_batteryId: 17380500,
	CAN_PACK_STATE: Idle,
	SOC: 22,
	CAN_CURRENT: 0,
	TEMPERATURE: 27.6,
	TOTAL_VOLT: 69414,
	LAST_CHARGE: 2000/01/01 00:06:32 039%,
},
{
	imestamp: 15:23:05,
	BATTERY_HEART_BEAT: 5,
	CYCLE_COUNT: 0,
	OV: 0, UV:0, COC:0, DOC:0, OT:0, UT:0, SC:0,
	FULL_CHARGE_CAPACITY: 32000,
	REMAIN_CAPACITY: 7268,
	CAN_batteryId: 17380500,
	CAN_PACK_STATE: Idle,
	SOC: 22,
	CAN_CURRENT: 0,
	TEMPERATURE: 27.6,
	TOTAL_VOLT: 69414,
	LAST_CHARGE: 2000/01/01 00:06:32 039%,
},
{
	imestamp: 15:23:06,
	BATTERY_HEART_BEAT: 5,
	CYCLE_COUNT: 0,
	OV: 0, UV:0, COC:0, DOC:0, OT:0, UT:0, SC:0,
	FULL_CHARGE_CAPACITY: 32000,
	REMAIN_CAPACITY: 7268,
	CAN_batteryId: 17380500,
	CAN_PACK_STATE: Idle,
	SOC: 22,
	CAN_CURRENT: 0,
	TEMPERATURE: 27.6,
	TOTAL_VOLT: 69414,
	LAST_CHARGE: 2000/01/01 00:06:32 039%,
},
{
	imestamp: 15:23:07,
	BATTERY_HEART_BEAT: 5,
	CYCLE_COUNT: 0,
	OV: 0, UV:0, COC:0, DOC:0, OT:0, UT:0, SC:0,
	FULL_CHARGE_CAPACITY: 32000,
	REMAIN_CAPACITY: 7268,
	CAN_batteryId: 17380500,
	CAN_PACK_STATE: Idle,
	SOC: 22,
	CAN_CURRENT: 0,
	TEMPERATURE: 27.5,
	TOTAL_VOLT: 69414,
	LAST_CHARGE: 2000/01/01 00:06:32 039%,
},
{
	imestamp: 15:23:08,
	BATTERY_HEART_BEAT: 5,
	CYCLE_COUNT: 0,
	OV: 0, UV:0, COC:0, DOC:0, OT:0, UT:0, SC:0,
	FULL_CHARGE_CAPACITY: 32000,
	REMAIN_CAPACITY: 7268,
	CAN_batteryId: 17380500,
	CAN_PACK_STATE: Idle,
	SOC: 22,
	CAN_CURRENT: 0,
	TEMPERATURE: 27.5,
	TOTAL_VOLT: 69414,
	LAST_CHARGE: 2000/01/01 00:06:32 039%,
},
{
	imestamp: 15:23:09,
	BATTERY_HEART_BEAT: 5,
	CYCLE_COUNT: 0,
	OV: 0, UV:0, COC:0, DOC:0, OT:0, UT:0, SC:0,
	FULL_CHARGE_CAPACITY: 32000,
	REMAIN_CAPACITY: 7268,
	CAN_batteryId: 17380500,
	CAN_PACK_STATE: Idle,
	SOC: 22,
	CAN_CURRENT: 0,
	TEMPERATURE: 27.5,
	TOTAL_VOLT: 69414,
	LAST_CHARGE: 2000/01/01 00:06:32 039%,
},
{
	imestamp: 15:23:10,
	BATTERY_HEART_BEAT: 5,
	CYCLE_COUNT: 0,
	OV: 0, UV:0, COC:0, DOC:0, OT:0, UT:0, SC:0,
	FULL_CHARGE_CAPACITY: 32000,
	REMAIN_CAPACITY: 7268,
	CAN_batteryId: 17380500,
	CAN_PACK_STATE: Idle,
	SOC: 22,
	CAN_CURRENT: 0,
	TEMPERATURE: 27.5,
	TOTAL_VOLT: 69414,
	LAST_CHARGE: 2000/01/01 00:06:32 039%,
},
{
	imestamp: 15:23:11,
	CYCLE_COUNT: 0,
	OV: 0, UV:0, COC:0, DOC:0, OT:0, UT:0, SC:0,
	FULL_CHARGE_CAPACITY: 32000,
	REMAIN_CAPACITY: 7268,
	CAN_batteryId: 17380500,
	CAN_PACK_STATE: Idle,
	BATTERY_HEART_BEAT: 5,
	SOC: 22,
	CAN_CURRENT: 0,
	TEMPERATURE: 27.5,
	TOTAL_VOLT: 69414,
	LAST_CHARGE: 2000/01/01 00:06:32 039%,
},
{
	imestamp: 15:23:12,
	CYCLE_COUNT: 0,
	OV: 0, UV:0, COC:0, DOC:0, OT:0, UT:0, SC:0,
	FULL_CHARGE_CAPACITY: 32000,
	REMAIN_CAPACITY: 7268,
	CAN_batteryId: 17380500,
	CAN_PACK_STATE: Idle,
	BATTERY_HEART_BEAT: 5,
	SOC: 22,
	CAN_CURRENT: 0,
	TEMPERATURE: 27.5,
	TOTAL_VOLT: 69414,
	LAST_CHARGE: 2000/01/01 00:06:32 039%,
},
{
	imestamp: 15:23:13,
	CYCLE_COUNT: 0,
	OV: 0, UV:0, COC:0, DOC:0, OT:0, UT:0, SC:0,
	FULL_CHARGE_CAPACITY: 32000,
	REMAIN_CAPACITY: 7268,
	CAN_batteryId: 17380500,
	CAN_PACK_STATE: Idle,
	BATTERY_HEART_BEAT: 5,
	SOC: 22,
	CAN_CURRENT: 0,
	TEMPERATURE: 27.5,
	TOTAL_VOLT: 69414,
	LAST_CHARGE: 2000/01/01 00:06:32 039%,
},
{
	imestamp: 15:23:14,
	CYCLE_COUNT: 0,
	OV: 0, UV:0, COC:0, DOC:0, OT:0, UT:0, SC:0,
	FULL_CHARGE_CAPACITY: 32000,
	REMAIN_CAPACITY: 7268,
	CAN_batteryId: 17380500,
	CAN_PACK_STATE: Idle,
	BATTERY_HEART_BEAT: 5,
	SOC: 22,
	CAN_CURRENT: 0,
	TEMPERATURE: 27.5,
	TOTAL_VOLT: 69414,
	LAST_CHARGE: 2000/01/01 00:06:32 039%,
},
{
	imestamp: 15:23:15,
	CYCLE_COUNT: 0,
	OV: 0, UV:0, COC:0, DOC:0, OT:0, UT:0, SC:0,
	FULL_CHARGE_CAPACITY: 32000,
	REMAIN_CAPACITY: 7268,
	CAN_batteryId: 17380500,
	CAN_PACK_STATE: Idle,
	BATTERY_HEART_BEAT: 5,
	SOC: 22,
	CAN_CURRENT: 0,
	TEMPERATURE: 27.5,
	TOTAL_VOLT: 69414,
	LAST_CHARGE: 2000/01/01 00:06:32 039%,
},
{
	imestamp: 15:23:16,
	CYCLE_COUNT: 0,
	OV: 0, UV:0, COC:0, DOC:0, OT:0, UT:0, SC:0,
	FULL_CHARGE_CAPACITY: 32000,
	REMAIN_CAPACITY: 7268,
	CAN_batteryId: 17380500,
	CAN_PACK_STATE: Idle,
	BATTERY_HEART_BEAT: 5,
	SOC: 22,
	CAN_CURRENT: 0,
	TEMPERATURE: 27.5,
	TOTAL_VOLT: 69414,
	LAST_CHARGE: 2000/01/01 00:06:32 039%,
},
{
	imestamp: 15:23:17,
	CYCLE_COUNT: 0,
	OV: 0, UV:0, COC:0, DOC:0, OT:0, UT:0, SC:0,
	FULL_CHARGE_CAPACITY: 32000,
	REMAIN_CAPACITY: 7268,
	CAN_batteryId: 17380500,
	CAN_PACK_STATE: Idle,
	BATTERY_HEART_BEAT: 5,
	SOC: 22,
	CAN_CURRENT: 0,
	TEMPERATURE: 27.5,
	TOTAL_VOLT: 69414,
	LAST_CHARGE: 2000/01/01 00:06:32 039%,
},
{
	imestamp: 15:23:18,
	FULL_CHARGE_CAPACITY: 32000,
	REMAIN_CAPACITY: 7268,
	CAN_batteryId: 17380500,
	CAN_PACK_STATE: Idle,
	BATTERY_HEART_BEAT: 5,
	SOC: 22,
	CAN_CURRENT: 0,
	TEMPERATURE: 27.5,
	TOTAL_VOLT: 69414,
	LAST_CHARGE: 2000/01/01 00:06:32 039%,
	CYCLE_COUNT: 0,
	OV: 0, UV:0, COC:0, DOC:0, OT:0, UT:0, SC:0,
},
{
	imestamp: 15:23:19,
	FULL_CHARGE_CAPACITY: 32000,
	REMAIN_CAPACITY: 7268,
	CAN_batteryId: 17380500,
	CAN_PACK_STATE: Idle,
	BATTERY_HEART_BEAT: 5,
	SOC: 22,
	CAN_CURRENT: 0,
	TEMPERATURE: 27.5,
	TOTAL_VOLT: 69414,
	LAST_CHARGE: 2000/01/01 00:06:32 039%,
	CYCLE_COUNT: 0,
	OV: 0, UV:0, COC:0, DOC:0, OT:0, UT:0, SC:0,
},
{
	imestamp: 15:23:20,
	FULL_CHARGE_CAPACITY: 32000,
	REMAIN_CAPACITY: 7268,
	CAN_batteryId: 17380500,
	CAN_PACK_STATE: Idle,
	BATTERY_HEART_BEAT: 5,
	SOC: 22,
	CAN_CURRENT: 0,
	TEMPERATURE: 27.5,
	TOTAL_VOLT: 69414,
	LAST_CHARGE: 2000/01/01 00:06:32 039%,
	CYCLE_COUNT: 0,
	OV: 0, UV:0, COC:0, DOC:0, OT:0, UT:0, SC:0,
},
{
	imestamp: 15:23:21,
	FULL_CHARGE_CAPACITY: 32000,
	REMAIN_CAPACITY: 7268,
	CAN_batteryId: 17380500,
	CAN_PACK_STATE: Idle,
	BATTERY_HEART_BEAT: 5,
	SOC: 22,
	CAN_CURRENT: 0,
	TEMPERATURE: 27.5,
	TOTAL_VOLT: 69414,
	LAST_CHARGE: 2000/01/01 00:06:32 039%,
	CYCLE_COUNT: 0,
	OV: 0, UV:0, COC:0, DOC:0, OT:0, UT:0, SC:0,
},
{
	imestamp: 15:23:22,
	FULL_CHARGE_CAPACITY: 32000,
	REMAIN_CAPACITY: 7268,
	CAN_batteryId: 17380500,
	CAN_PACK_STATE: Idle,
	BATTERY_HEART_BEAT: 5,
	SOC: 22,
	CAN_CURRENT: 0,
	TEMPERATURE: 27.5,
	TOTAL_VOLT: 69414,
	LAST_CHARGE: 2000/01/01 00:06:32 039%,
	CYCLE_COUNT: 0,
	OV: 0, UV:0, COC:0, DOC:0, OT:0, UT:0, SC:0,
},
{
	imestamp: 15:23:23,
	FULL_CHARGE_CAPACITY: 32000,
	REMAIN_CAPACITY: 7268,
	CAN_batteryId: 17380500,
	CAN_PACK_STATE: Idle,
	BATTERY_HEART_BEAT: 5,
	SOC: 22,
	CAN_CURRENT: 0,
	TEMPERATURE: 27.5,
	TOTAL_VOLT: 69414,
	LAST_CHARGE: 2000/01/01 00:06:32 039%,
	CYCLE_COUNT: 0,
	OV: 0, UV:0, COC:0, DOC:0, OT:0, UT:0, SC:0,
},
{
	imestamp: 15:23:24,
	FULL_CHARGE_CAPACITY: 32000,
	REMAIN_CAPACITY: 7268,
	CAN_batteryId: 17380500,
	CAN_PACK_STATE: Idle,
	BATTERY_HEART_BEAT: 5,
	SOC: 22,
	CAN_CURRENT: 0,
	TEMPERATURE: 27.5,
	TOTAL_VOLT: 69414,
	LAST_CHARGE: 2000/01/01 00:06:32 039%,
	CYCLE_COUNT: 0,
	OV: 0, UV:0, COC:0, DOC:0, OT:0, UT:0, SC:0,
},
{
	imestamp: 15:23:25,
	FULL_CHARGE_CAPACITY: 32000,
	REMAIN_CAPACITY: 7268,
	CAN_batteryId: 17380500,
	CAN_PACK_STATE: Idle,
	BATTERY_HEART_BEAT: 5,
	SOC: 22,
	CAN_CURRENT: 0,
	TEMPERATURE: 27.5,
	TOTAL_VOLT: 69414,
	LAST_CHARGE: 2000/01/01 00:06:32 039%,
	CYCLE_COUNT: 0,
	OV: 0, UV:0, COC:0, DOC:0, OT:0, UT:0, SC:0,
},
{
	imestamp: 15:23:26,
	FULL_CHARGE_CAPACITY: 32000,
	REMAIN_CAPACITY: 7268,
	CAN_batteryId: 17380500,
	CAN_PACK_STATE: Idle,
	BATTERY_HEART_BEAT: 5,
	SOC: 22,
	CAN_CURRENT: 0,
	TEMPERATURE: 27.5,
	TOTAL_VOLT: 69414,
	LAST_CHARGE: 2000/01/01 00:06:32 039%,
	CYCLE_COUNT: 0,
	OV: 0, UV:0, COC:0, DOC:0, OT:0, UT:0, SC:0,
},
{
	imestamp: 15:23:27,
	FULL_CHARGE_CAPACITY: 32000,
	REMAIN_CAPACITY: 7268,
	CAN_batteryId: 17380500,
	CAN_PACK_STATE: Idle,
	BATTERY_HEART_BEAT: 5,
	SOC: 22,
	CAN_CURRENT: 0,
	TEMPERATURE: 27.6,
	TOTAL_VOLT: 69414,
	LAST_CHARGE: 2000/01/01 00:06:32 039%,
	CYCLE_COUNT: 0,
	OV: 0, UV:0, COC:0, DOC:0, OT:0, UT:0, SC:0,
},
{
	imestamp: 15:23:28,
	FULL_CHARGE_CAPACITY: 32000,
	REMAIN_CAPACITY: 7268,
	CAN_batteryId: 17380500,
	CAN_PACK_STATE: Idle,
	BATTERY_HEART_BEAT: 5,
	SOC: 22,
	CAN_CURRENT: 0,
	TEMPERATURE: 27.6,
	TOTAL_VOLT: 69414,
	LAST_CHARGE: 2000/01/01 00:06:32 039%,
	CYCLE_COUNT: 0,
	OV: 0, UV:0, COC:0, DOC:0, OT:0, UT:0, SC:0,
},
{
	imestamp: 15:23:29,
	FULL_CHARGE_CAPACITY: 32000,
	REMAIN_CAPACITY: 7268,
	CAN_batteryId: 17380500,
	CAN_PACK_STATE: Idle,
	BATTERY_HEART_BEAT: 5,
	SOC: 22,
	CAN_CURRENT: 0,
	TEMPERATURE: 27.6,
	TOTAL_VOLT: 69414,
	LAST_CHARGE: 2000/01/01 00:06:32 039%,
	CYCLE_COUNT: 0,
	OV: 0, UV:0, COC:0, DOC:0, OT:0, UT:0, SC:0,
},
{
	imestamp: 15:23:30,
	FULL_CHARGE_CAPACITY: 32000,
	REMAIN_CAPACITY: 7268,
	CAN_batteryId: 17380500,
	CAN_PACK_STATE: Idle,
	BATTERY_HEART_BEAT: 5,
	SOC: 22,
	CAN_CURRENT: 0,
	TEMPERATURE: 27.6,
	TOTAL_VOLT: 69414,
	LAST_CHARGE: 2000/01/01 00:06:32 039%,
	CYCLE_COUNT: 0,
	OV: 0, UV:0, COC:0, DOC:0, OT:0, UT:0, SC:0,
},
{
	imestamp: 15:23:31,
	FULL_CHARGE_CAPACITY: 32000,
	REMAIN_CAPACITY: 7268,
	CAN_batteryId: 17380500,
	CAN_PACK_STATE: Idle,
	BATTERY_HEART_BEAT: 5,
	SOC: 22,
	CAN_CURRENT: 0,
	TEMPERATURE: 27.6,
	TOTAL_VOLT: 69414,
	LAST_CHARGE: 2000/01/01 00:06:32 039%,
	CYCLE_COUNT: 0,
	OV: 0, UV:0, COC:0, DOC:0, OT:0, UT:0, SC:0,
},
{
	imestamp: 15:23:32,
	FULL_CHARGE_CAPACITY: 32000,
	REMAIN_CAPACITY: 7268,
	CAN_batteryId: 17380500,
	CAN_PACK_STATE: Idle,
	BATTERY_HEART_BEAT: 5,
	SOC: 22,
	CAN_CURRENT: 0,
	TEMPERATURE: 27.6,
	TOTAL_VOLT: 69414,
	LAST_CHARGE: 2000/01/01 00:06:32 039%,
	CYCLE_COUNT: 0,
	OV: 0, UV:0, COC:0, DOC:0, OT:0, UT:0, SC:0,
},
{
	imestamp: 15:23:33,
	FULL_CHARGE_CAPACITY: 32000,
	REMAIN_CAPACITY: 7268,
	CAN_batteryId: 17380500,
	CAN_PACK_STATE: Idle,
	BATTERY_HEART_BEAT: 5,
	SOC: 22,
	CAN_CURRENT: 0,
	TEMPERATURE: 27.6,
	TOTAL_VOLT: 69414,
	LAST_CHARGE: 2000/01/01 00:06:32 039%,
	CYCLE_COUNT: 0,
	OV: 0, UV:0, COC:0, DOC:0, OT:0, UT:0, SC:0,
},
{
	imestamp: 15:23:34,
	FULL_CHARGE_CAPACITY: 32000,
	REMAIN_CAPACITY: 7268,
	CAN_batteryId: 17380500,
	CAN_PACK_STATE: Idle,
	BATTERY_HEART_BEAT: 5,
	SOC: 22,
	CAN_CURRENT: 0,
	TEMPERATURE: 27.6,
	TOTAL_VOLT: 69414,
	LAST_CHARGE: 2000/01/01 00:06:32 039%,
	CYCLE_COUNT: 0,
	OV: 0, UV:0, COC:0, DOC:0, OT:0, UT:0, SC:0,
},
{
	imestamp: 15:23:35,
	CAN_batteryId: 17380500,
	CAN_PACK_STATE: Idle,
	BATTERY_HEART_BEAT: 5,
	SOC: 22,
	CAN_CURRENT: 0,
	TEMPERATURE: 27.6,
	TOTAL_VOLT: 69414,
	LAST_CHARGE: 2000/01/01 00:06:32 039%,
	CYCLE_COUNT: 0,
	OV: 0, UV:0, COC:0, DOC:0, OT:0, UT:0, SC:0,
	FULL_CHARGE_CAPACITY: 32000,
	REMAIN_CAPACITY: 7268,
},
{
	imestamp: 15:23:36,
	BATTERY_HEART_BEAT: 5,
	SOC: 22,
	CAN_CURRENT: 0,
	TEMPERATURE: 27.6,
	TOTAL_VOLT: 69414,
	LAST_CHARGE: 2000/01/01 00:06:32 039%,
	CYCLE_COUNT: 0,
	OV: 0, UV:0, COC:0, DOC:0, OT:0, UT:0, SC:0,
	FULL_CHARGE_CAPACITY: 32000,
	REMAIN_CAPACITY: 7268,
	CAN_batteryId: 17380500,
	CAN_PACK_STATE: Idle,
},
{
	imestamp: 15:23:37,
	BATTERY_HEART_BEAT: 5,
	SOC: 22,
	CAN_CURRENT: 0,
	TEMPERATURE: 27.5,
	TOTAL_VOLT: 69368,
	LAST_CHARGE: 2000/01/01 00:06:32 039%,
	CYCLE_COUNT: 0,
	OV: 0, UV:0, COC:0, DOC:0, OT:0, UT:0, SC:0,
	FULL_CHARGE_CAPACITY: 32000,
	REMAIN_CAPACITY: 7268,
	CAN_batteryId: 17380500,
	CAN_PACK_STATE: Idle,
},
{
	imestamp: 15:23:38,
	BATTERY_HEART_BEAT: 5,
	SOC: 22,
	CAN_CURRENT: 0,
	TEMPERATURE: 27.5,
	TOTAL_VOLT: 69368,
	LAST_CHARGE: 2000/01/01 00:06:32 039%,
	CYCLE_COUNT: 0,
	OV: 0, UV:0, COC:0, DOC:0, OT:0, UT:0, SC:0,
	FULL_CHARGE_CAPACITY: 32000,
	REMAIN_CAPACITY: 7268,
	CAN_batteryId: 17380500,
	CAN_PACK_STATE: Idle,
},
{
	imestamp: 15:23:39,
	BATTERY_HEART_BEAT: 5,
	SOC: 22,
	CAN_CURRENT: 0,
	TEMPERATURE: 27.5,
	TOTAL_VOLT: 69368,
	LAST_CHARGE: 2000/01/01 00:06:32 039%,
	CYCLE_COUNT: 0,
	OV: 0, UV:0, COC:0, DOC:0, OT:0, UT:0, SC:0,
	FULL_CHARGE_CAPACITY: 32000,
	REMAIN_CAPACITY: 7268,
	CAN_batteryId: 17380500,
	CAN_PACK_STATE: Idle,
},
{
	imestamp: 15:23:40,
	BATTERY_HEART_BEAT: 5,
	SOC: 22,
	CAN_CURRENT: 0,
	TEMPERATURE: 27.5,
	TOTAL_VOLT: 69368,
	LAST_CHARGE: 2000/01/01 00:06:32 039%,
	CYCLE_COUNT: 0,
	OV: 0, UV:0, COC:0, DOC:0, OT:0, UT:0, SC:0,
	FULL_CHARGE_CAPACITY: 32000,
	REMAIN_CAPACITY: 7268,
	CAN_batteryId: 17380500,
	CAN_PACK_STATE: Idle,
},
{
	imestamp: 15:23:41,
	BATTERY_HEART_BEAT: 5,
	SOC: 22,
	CAN_CURRENT: 0,
	TEMPERATURE: 27.5,
	TOTAL_VOLT: 69368,
	LAST_CHARGE: 2000/01/01 00:06:32 039%,
	CYCLE_COUNT: 0,
	OV: 0, UV:0, COC:0, DOC:0, OT:0, UT:0, SC:0,
	FULL_CHARGE_CAPACITY: 32000,
	REMAIN_CAPACITY: 7268,
	CAN_batteryId: 17380500,
	CAN_PACK_STATE: Idle,
},
{
	imestamp: 15:23:42,
	BATTERY_HEART_BEAT: 5,
	SOC: 22,
	CAN_CURRENT: 0,
	TEMPERATURE: 27.5,
	TOTAL_VOLT: 69368,
	LAST_CHARGE: 2000/01/01 00:06:32 039%,
	CYCLE_COUNT: 0,
	OV: 0, UV:0, COC:0, DOC:0, OT:0, UT:0, SC:0,
	FULL_CHARGE_CAPACITY: 32000,
	REMAIN_CAPACITY: 7268,
	CAN_batteryId: 17380500,
	CAN_PACK_STATE: Idle,
},
{
	imestamp: 15:23:43,
	BATTERY_HEART_BEAT: 5,
	SOC: 22,
	CAN_CURRENT: 0,
	TEMPERATURE: 27.5,
	TOTAL_VOLT: 69368,
	LAST_CHARGE: 2000/01/01 00:06:32 039%,
	CYCLE_COUNT: 0,
	OV: 0, UV:0, COC:0, DOC:0, OT:0, UT:0, SC:0,
	FULL_CHARGE_CAPACITY: 32000,
	REMAIN_CAPACITY: 7268,
	CAN_batteryId: 17380500,
	CAN_PACK_STATE: Idle,
},
{
	imestamp: 15:23:44,
	BATTERY_HEART_BEAT: 5,
	SOC: 22,
	CAN_CURRENT: 0,
	TEMPERATURE: 27.5,
	TOTAL_VOLT: 69368,
	LAST_CHARGE: 2000/01/01 00:06:32 039%,
	CYCLE_COUNT: 0,
	OV: 0, UV:0, COC:0, DOC:0, OT:0, UT:0, SC:0,
	FULL_CHARGE_CAPACITY: 32000,
	REMAIN_CAPACITY: 7268,
	CAN_batteryId: 17380500,
	CAN_PACK_STATE: Idle,
},
{
	imestamp: 15:23:45,
	BATTERY_HEART_BEAT: 5,
	SOC: 22,
	CAN_CURRENT: 0,
	TEMPERATURE: 27.5,
	TOTAL_VOLT: 69368,
	LAST_CHARGE: 2000/01/01 00:06:32 039%,
	CYCLE_COUNT: 0,
	OV: 0, UV:0, COC:0, DOC:0, OT:0, UT:0, SC:0,
	FULL_CHARGE_CAPACITY: 32000,
	REMAIN_CAPACITY: 7268,
	CAN_batteryId: 17380500,
	CAN_PACK_STATE: Idle,
},
{
	imestamp: 15:23:46,
	BATTERY_HEART_BEAT: 5,
	SOC: 22,
	CAN_CURRENT: 0,
	TEMPERATURE: 27.5,
	TOTAL_VOLT: 69368,
	LAST_CHARGE: 2000/01/01 00:06:32 039%,
	CYCLE_COUNT: 0,
	OV: 0, UV:0, COC:0, DOC:0, OT:0, UT:0, SC:0,
	FULL_CHARGE_CAPACITY: 32000,
	REMAIN_CAPACITY: 7268,
	CAN_batteryId: 17380500,
	CAN_PACK_STATE: Idle,
},
{
	imestamp: 15:23:47,
	BATTERY_HEART_BEAT: 5,
	SOC: 22,
	CAN_CURRENT: 0,
	TEMPERATURE: 27.5,
	TOTAL_VOLT: 69368,
	LAST_CHARGE: 2000/01/01 00:06:32 039%,
	CYCLE_COUNT: 0,
	OV: 0, UV:0, COC:0, DOC:0, OT:0, UT:0, SC:0,
	FULL_CHARGE_CAPACITY: 32000,
	REMAIN_CAPACITY: 7268,
	CAN_batteryId: 17380500,
	CAN_PACK_STATE: Idle,
},
{
	imestamp: 15:23:48,
	BATTERY_HEART_BEAT: 5,
	SOC: 22,
	CAN_CURRENT: 0,
	TEMPERATURE: 27.5,
	TOTAL_VOLT: 69368,
	LAST_CHARGE: 2000/01/01 00:06:32 039%,
	CYCLE_COUNT: 0,
	OV: 0, UV:0, COC:0, DOC:0, OT:0, UT:0, SC:0,
	FULL_CHARGE_CAPACITY: 32000,
	REMAIN_CAPACITY: 7268,
	CAN_batteryId: 17380500,
	CAN_PACK_STATE: Idle,
}]