2018/03/21 06:42:18	BATEmulator	GetBatParam	02 00 5A 04 02 00 00 62 
2018/03/21 14:42:18	BATEmulator(Send)	GetBatParam	2 0 165 4 17 108 152 1 210 9 129 1 90 4 106 1 1 8 0 8 27 25 44 3 
2018/03/21 06:42:18	BATEmulator	GetBatInfoP(1)S(1)	02 00 5A 01 03 01 01 00 62 
2018/03/21 14:42:18	BATEmulator(Send)	GetBatInfo	2 0 165 1 47 8 146 8 147 8 146 10 57 10 57 10 57 10 57 10 57 0 0 0 0 0 0 0 0 0 0 0 0 4 50 4 56 6 35 0 0 1 255 49 0 0 0 0 0 0 0 0 193 3 
2018/03/21 06:42:20	BATEmulator	GetBatInfoP(1)S(1)	02 00 5A 01 03 01 01 00 62 
2018/03/21 14:42:20	BATEmulator(Send)	GetBatInfo	2 0 165 1 47 8 146 8 147 8 146 10 57 10 57 10 57 10 57 10 57 0 0 0 0 0 0 0 0 0 0 0 0 4 50 4 56 6 35 0 0 1 255 49 0 0 0 0 0 0 0 0 193 3 
2018/03/21 06:42:22	BATEmulator	GetBatInfoP(1)S(1)	02 00 5A 01 03 01 01 00 62 
2018/03/21 14:42:22	BATEmulator(Send)	GetBatInfo	2 0 165 1 47 8 146 8 147 8 146 10 57 10 57 10 57 10 57 10 57 0 0 0 0 0 0 0 0 0 0 0 0 4 50 4 56 6 35 0 0 1 255 49 0 0 0 0 0 0 0 0 193 3 
2018/03/21 06:42:23	BATEmulator	GetBatInfoP(1)S(1)	02 00 5A 01 03 01 01 00 62 
2018/03/21 14:42:23	BATEmulator(Send)	GetBatInfo	2 0 165 1 47 8 146 8 147 8 146 10 57 10 57 10 57 10 57 10 57 0 0 0 0 0 0 0 0 0 0 0 0 4 50 4 56 6 35 0 0 1 255 49 0 0 0 0 0 0 0 0 193 3 
2018/03/21 06:42:25	BATEmulator	GetBatInfoP(1)S(1)	02 00 5A 01 03 01 01 00 62 
2018/03/21 14:42:25	BATEmulator(Send)	GetBatInfo	2 0 165 1 47 8 146 8 147 8 146 10 57 10 57 10 57 10 57 10 57 0 0 0 0 0 0 0 0 0 0 0 0 4 50 4 56 6 35 0 0 1 255 49 0 0 0 0 0 0 0 0 193 3 
2018/03/21 06:42:26	BATEmulator	GetBatInfoP(1)S(1)	02 00 5A 01 03 01 01 00 62 
2018/03/21 14:42:26	BATEmulator(Send)	GetBatInfo	2 0 165 1 47 8 146 8 147 8 146 10 57 10 57 10 57 10 57 10 57 0 0 0 0 0 0 0 0 0 0 0 0 4 50 4 56 6 35 0 0 1 255 49 0 0 0 0 0 0 0 0 193 3 
2018/03/21 06:42:28	BATEmulator	GetBatInfoP(1)S(1)	02 00 5A 01 03 01 01 00 62 
2018/03/21 14:42:28	BATEmulator(Send)	GetBatInfo	2 0 165 1 47 8 146 8 147 8 146 10 57 10 57 10 57 10 57 10 57 0 0 0 0 0 0 0 0 0 0 0 0 4 50 4 56 6 35 0 0 1 255 49 0 0 0 0 0 0 0 0 193 3 
2018/03/21 06:42:29	BATEmulator	GetBatInfoP(1)S(1)	02 00 5A 01 03 01 01 00 62 
2018/03/21 14:42:29	BATEmulator(Send)	GetBatInfo	2 0 165 1 47 8 146 8 147 8 146 10 57 10 57 10 57 10 57 10 57 0 0 0 0 0 0 0 0 0 0 0 0 4 50 4 56 6 35 0 0 1 255 49 0 0 0 0 0 0 0 0 193 3 
2018/03/21 06:42:31	BATEmulator	GetBatInfoP(1)S(1)	02 00 5A 01 03 01 01 00 62 
2018/03/21 14:42:31	BATEmulator(Send)	GetBatInfo	2 0 165 1 47 8 146 8 147 8 146 10 57 10 57 10 57 10 57 10 57 0 0 0 0 0 0 0 0 0 0 0 0 4 50 4 56 6 35 0 0 1 255 49 0 0 0 0 0 0 0 0 193 3 
2018/03/21 06:42:32	BATEmulator	GetBatInfoP(1)S(1)	02 00 5A 01 03 01 01 00 62 
2018/03/21 14:42:32	BATEmulator(Send)	GetBatInfo	2 0 165 1 47 8 146 8 147 8 146 10 57 10 57 10 57 10 57 10 57 0 0 0 0 0 0 0 0 0 0 0 0 4 50 4 56 6 35 0 0 1 255 49 0 0 0 0 0 0 0 0 193 3 
2018/03/21 06:42:34	BATEmulator	GetBatInfoP(1)S(1)	02 00 5A 01 03 01 01 00 62 
2018/03/21 14:42:34	BATEmulator(Send)	GetBatInfo	2 0 165 1 47 8 146 8 147 8 146 10 57 10 57 10 57 10 57 10 57 0 0 0 0 0 0 0 0 0 0 0 0 4 50 4 56 6 35 0 0 1 255 49 0 0 0 0 0 0 0 0 193 3 
2018/03/21 06:42:35	BATEmulator	GetBatInfoP(1)S(1)	02 00 5A 01 03 01 01 00 62 
2018/03/21 14:42:35	BATEmulator(Send)	GetBatInfo	2 0 165 1 47 8 146 8 147 8 146 10 57 10 57 10 57 10 57 10 57 0 0 0 0 0 0 0 0 0 0 0 0 4 50 4 56 6 35 0 0 1 255 49 0 0 0 0 0 0 0 0 193 3 
2018/03/21 06:42:37	BATEmulator	GetBatInfoP(1)S(1)	02 00 5A 01 03 01 01 00 62 
2018/03/21 14:42:37	BATEmulator(Send)	GetBatInfo	2 0 165 1 47 8 146 8 147 8 146 10 57 10 57 10 57 10 57 10 57 0 0 0 0 0 0 0 0 0 0 0 0 4 50 4 56 6 35 0 0 1 255 49 0 0 0 0 0 0 0 0 193 3 
2018/03/21 06:42:38	BATEmulator	GetBatInfoP(1)S(1)	02 00 5A 01 03 01 01 00 62 
2018/03/21 14:42:38	BATEmulator(Send)	GetBatInfo	2 0 165 1 47 8 146 8 147 8 146 10 57 10 57 10 57 10 57 10 57 0 0 0 0 0 0 0 0 0 0 0 0 4 50 4 56 6 35 0 0 1 255 49 0 0 0 0 0 0 0 0 193 3 
2018/03/21 06:42:40	BATEmulator	GetBatInfoP(1)S(1)	02 00 5A 01 03 01 01 00 62 
2018/03/21 14:42:40	BATEmulator(Send)	GetBatInfo	2 0 165 1 47 8 146 8 147 8 146 10 57 10 57 10 57 10 57 10 57 0 0 0 0 0 0 0 0 0 0 0 0 4 50 4 56 6 35 0 0 1 255 49 0 0 0 0 0 0 0 0 193 3 
2018/03/21 06:42:41	BATEmulator	GetBatInfoP(1)S(1)	02 00 5A 01 03 01 01 00 62 
2018/03/21 14:42:41	BATEmulator(Send)	GetBatInfo	2 0 165 1 47 8 146 8 147 8 146 10 57 10 57 10 57 10 57 10 57 0 0 0 0 0 0 0 0 0 0 0 0 4 50 4 56 6 35 0 0 1 255 49 0 0 0 0 0 0 0 0 193 3 
2018/03/21 06:42:43	BATEmulator	GetBatInfoP(1)S(1)	02 00 5A 01 03 01 01 00 62 
2018/03/21 14:42:43	BATEmulator(Send)	GetBatInfo	2 0 165 1 47 8 146 8 147 8 146 10 57 10 57 10 57 10 57 10 57 0 0 0 0 0 0 0 0 0 0 0 0 4 50 4 56 6 35 0 0 1 255 49 0 0 0 0 0 0 0 0 193 3 
2018/03/21 06:42:44	BATEmulator	GetBatInfoP(1)S(1)	02 00 5A 01 03 01 01 00 62 
2018/03/21 14:42:44	BATEmulator(Send)	GetBatInfo	2 0 165 1 47 8 146 8 147 8 146 10 57 10 57 10 57 10 57 10 57 0 0 0 0 0 0 0 0 0 0 0 0 4 50 4 56 6 35 0 0 1 255 49 0 0 0 0 0 0 0 0 193 3 
2018/03/21 06:42:46	BATEmulator	GetBatInfoP(1)S(1)	02 00 5A 01 03 01 01 00 62 
2018/03/21 14:42:46	BATEmulator(Send)	GetBatInfo	2 0 165 1 47 8 146 8 147 8 146 10 57 10 57 10 57 10 57 10 57 0 0 0 0 0 0 0 0 0 0 0 0 4 50 4 56 6 35 0 0 1 255 49 0 0 0 0 0 0 0 0 193 3 
2018/03/21 06:42:47	BATEmulator	GetBatInfoP(1)S(1)	02 00 5A 01 03 01 01 00 62 
2018/03/21 14:42:47	BATEmulator(Send)	GetBatInfo	2 0 165 1 47 8 146 8 147 8 146 10 57 10 57 10 57 10 57 10 57 0 0 0 0 0 0 0 0 0 0 0 0 4 50 4 56 6 35 0 0 1 255 49 0 0 0 0 0 0 0 0 193 3 
2018/03/21 06:42:49	BATEmulator	GetBatInfoP(1)S(1)	02 00 5A 01 03 01 01 00 62 
2018/03/21 14:42:49	BATEmulator(Send)	GetBatInfo	2 0 165 1 47 8 146 8 147 8 146 10 57 10 57 10 57 10 57 10 63 0 0 0 0 0 0 0 0 0 0 0 0 4 50 4 56 6 35 0 0 1 255 49 0 0 0 0 0 0 0 0 199 3 
2018/03/21 06:42:50	BATEmulator	GetBatInfoP(1)S(1)	02 00 5A 01 03 01 01 00 62 
2018/03/21 14:42:50	BATEmulator(Send)	GetBatInfo	2 0 165 1 47 8 146 8 147 8 146 10 57 10 57 10 57 10 57 10 63 0 0 0 0 0 0 0 0 0 0 0 0 4 50 4 56 6 35 0 0 1 255 49 0 0 0 0 0 0 0 0 199 3 
2018/03/21 06:42:52	BATEmulator	GetBatInfoP(1)S(1)	02 00 5A 01 03 01 01 00 62 
2018/03/21 14:42:52	BATEmulator(Send)	GetBatInfo	2 0 165 1 47 8 146 8 147 8 146 10 57 10 57 10 57 10 57 10 63 0 0 0 0 0 0 0 0 0 0 0 0 4 50 4 56 6 35 0 0 1 255 49 0 0 0 0 0 0 0 0 199 3 
2018/03/21 06:42:53	BATEmulator	GetBatInfoP(1)S(1)	02 00 5A 01 03 01 01 00 62 
2018/03/21 14:42:53	BATEmulator(Send)	GetBatInfo	2 0 165 1 47 8 146 8 147 8 146 10 57 10 57 10 57 10 57 10 63 0 0 0 0 0 0 0 0 0 0 0 0 4 50 4 56 6 35 0 0 1 255 49 0 0 0 0 0 0 0 0 199 3 
2018/03/21 06:42:55	BATEmulator	GetBatInfoP(1)S(1)	02 00 5A 01 03 01 01 00 62 
2018/03/21 14:42:55	BATEmulator(Send)	GetBatInfo	2 0 165 1 47 8 146 8 147 8 146 10 57 10 57 10 57 10 57 10 63 0 0 0 0 0 0 0 0 0 0 0 0 4 50 4 56 6 35 0 0 1 255 49 0 0 0 0 0 0 0 0 199 3 
2018/03/21 06:42:57	BATEmulator	GetBatInfoP(1)S(1)	02 00 5A 01 03 01 01 00 62 
2018/03/21 14:42:57	BATEmulator(Send)	GetBatInfo	2 0 165 1 47 8 146 8 147 8 146 10 57 10 57 10 57 10 57 10 63 0 0 0 0 0 0 0 0 0 0 0 0 4 50 4 56 6 35 0 0 1 255 49 0 0 0 0 0 0 0 0 199 3 
2018/03/21 06:42:58	BATEmulator	GetBatInfoP(1)S(1)	02 00 5A 01 03 01 01 00 62 
2018/03/21 14:42:58	BATEmulator(Send)	GetBatInfo	2 0 165 1 47 8 146 8 147 8 146 10 57 10 57 10 57 10 57 10 63 0 0 0 0 0 0 0 0 0 0 0 0 4 50 4 56 6 35 0 0 1 255 49 0 0 0 0 0 0 0 0 199 3 
2018/03/21 06:43:00	BATEmulator	GetBatInfoP(1)S(1)	02 00 5A 01 03 01 01 00 62 
2018/03/21 14:43:00	BATEmulator(Send)	GetBatInfo	2 0 165 1 47 8 146 8 147 8 146 10 57 10 57 10 57 10 57 10 63 0 0 0 0 0 0 0 0 0 0 0 0 4 50 4 56 6 35 0 0 1 255 49 0 0 0 0 0 0 0 0 199 3 
2018/03/21 06:43:01	BATEmulator	GetBatInfoP(1)S(1)	02 00 5A 01 03 01 01 00 62 
2018/03/21 14:43:01	BATEmulator(Send)	GetBatInfo	2 0 165 1 47 8 146 8 147 8 146 10 57 10 57 10 57 10 57 10 63 0 0 0 0 0 0 0 0 0 0 0 0 4 50 4 56 6 35 0 0 1 255 49 0 0 0 0 0 0 0 0 199 3 
2018/03/21 06:43:03	BATEmulator	GetBatInfoP(1)S(1)	02 00 5A 01 03 01 01 00 62 
2018/03/21 14:43:03	BATEmulator(Send)	GetBatInfo	2 0 165 1 47 8 146 8 147 8 146 10 57 10 57 10 57 10 57 10 63 0 0 0 0 0 0 0 0 0 0 0 0 4 50 4 56 6 35 0 0 1 255 49 0 0 0 0 0 0 0 0 199 3 
2018/03/21 06:43:04	BATEmulator	GetBatInfoP(1)S(1)	02 00 5A 01 03 01 01 00 62 
2018/03/21 14:43:04	BATEmulator(Send)	GetBatInfo	2 0 165 1 47 8 146 8 147 8 146 10 57 10 57 10 57 10 57 10 63 0 0 0 0 0 0 0 0 0 0 0 0 4 50 4 56 6 35 0 0 1 255 49 0 0 0 0 0 0 0 0 199 3 
2018/03/21 06:43:06	BATEmulator	GetBatInfoP(1)S(1)	02 00 5A 01 03 01 01 00 62 
2018/03/21 14:43:06	BATEmulator(Send)	GetBatInfo	2 0 165 1 47 8 146 8 147 8 146 10 57 10 57 10 57 10 57 10 63 0 0 0 0 0 0 0 0 0 0 0 0 4 50 4 56 6 35 0 0 1 255 49 0 0 0 0 0 0 0 0 199 3 
2018/03/21 06:43:07	BATEmulator	GetBatInfoP(1)S(1)	02 00 5A 01 03 01 01 00 62 
2018/03/21 14:43:07	BATEmulator(Send)	GetBatInfo	2 0 165 1 47 8 146 8 147 8 146 10 57 10 57 10 57 10 57 10 63 0 0 0 0 0 0 0 0 0 0 0 0 4 50 4 56 6 35 0 0 1 255 49 0 0 0 0 0 0 0 0 199 3 
2018/03/21 06:43:09	BATEmulator	GetBatInfoP(1)S(1)	02 00 5A 01 03 01 01 00 62 
2018/03/21 14:43:09	BATEmulator(Send)	GetBatInfo	2 0 165 1 47 8 146 8 147 8 146 10 57 10 57 10 57 10 57 10 63 0 0 0 0 0 0 0 0 0 0 0 0 4 50 4 56 6 35 0 0 1 255 49 0 0 0 0 0 0 0 0 199 3 
2018/03/21 06:43:10	BATEmulator	GetBatInfoP(1)S(1)	02 00 5A 01 03 01 01 00 62 
2018/03/21 14:43:10	BATEmulator(Send)	GetBatInfo	2 0 165 1 47 8 146 8 147 8 146 10 57 10 57 10 57 10 57 10 63 0 0 0 0 0 0 0 0 0 0 0 0 4 50 4 56 6 35 0 0 1 255 49 0 0 0 0 0 0 0 0 199 3 
2018/03/21 06:43:12	BATEmulator	GetBatInfoP(1)S(1)	02 00 5A 01 03 01 01 00 62 
2018/03/21 14:43:12	BATEmulator(Send)	GetBatInfo	2 0 165 1 47 8 146 8 147 8 146 10 57 10 57 10 57 10 57 10 63 0 0 0 0 0 0 0 0 0 0 0 0 4 50 4 56 6 35 0 0 1 255 49 0 0 0 0 0 0 0 0 199 3 
2018/03/21 06:43:13	BATEmulator	GetBatInfoP(1)S(1)	02 00 5A 01 03 01 01 00 62 
2018/03/21 14:43:13	BATEmulator(Send)	GetBatInfo	2 0 165 1 47 8 146 8 147 8 146 10 57 10 57 10 57 10 57 10 63 0 0 0 0 0 0 0 0 0 0 0 0 4 50 4 56 6 35 0 0 1 255 49 0 0 0 0 0 0 0 0 199 3 
2018/03/21 06:43:15	BATEmulator	GetBatInfoP(1)S(1)	02 00 5A 01 03 01 01 00 62 
2018/03/21 14:43:15	BATEmulator(Send)	GetBatInfo	2 0 165 1 47 8 146 8 147 8 146 10 57 10 57 10 57 10 57 10 63 0 0 0 0 0 0 0 0 0 0 0 0 4 50 4 56 6 35 0 0 1 255 49 0 0 0 0 0 0 0 0 199 3 
2018/03/21 06:43:16	BATEmulator	GetBatInfoP(1)S(1)	02 00 5A 01 03 01 01 00 62 
2018/03/21 14:43:16	BATEmulator(Send)	GetBatInfo	2 0 165 1 47 8 146 8 147 8 146 10 57 10 57 10 57 10 57 10 63 0 0 0 0 0 0 0 0 0 0 0 0 4 50 4 56 6 35 0 0 1 255 49 0 0 0 0 0 0 0 0 199 3 
2018/03/21 06:43:18	BATEmulator	GetBatInfoP(1)S(1)	02 00 5A 01 03 01 01 00 62 
2018/03/21 14:43:18	BATEmulator(Send)	GetBatInfo	2 0 165 1 47 8 146 8 147 8 146 10 57 10 57 10 57 10 57 10 63 0 0 0 0 0 0 0 0 0 0 0 0 4 50 4 56 6 35 0 0 1 255 49 0 0 0 0 0 0 0 0 199 3 
2018/03/21 06:43:19	BATEmulator	GetBatInfoP(1)S(1)	02 00 5A 01 03 01 01 00 62 
2018/03/21 14:43:19	BATEmulator(Send)	GetBatInfo	2 0 165 1 47 8 146 8 147 8 146 10 57 10 57 10 57 10 57 10 63 0 0 0 0 0 0 0 0 0 0 0 0 4 50 4 56 6 35 0 0 1 255 49 0 0 0 0 0 0 0 0 199 3 
2018/03/21 06:43:21	BATEmulator	GetBatInfoP(1)S(1)	02 00 5A 01 03 01 01 00 62 
2018/03/21 14:43:21	BATEmulator(Send)	GetBatInfo	2 0 165 1 47 8 146 8 147 8 146 10 57 10 57 10 57 10 57 10 63 0 0 0 0 0 0 0 0 0 0 0 0 4 50 4 56 6 35 0 0 1 255 49 0 0 0 0 0 0 0 0 199 3 
2018/03/21 06:43:22	BATEmulator	GetBatInfoP(1)S(1)	02 00 5A 01 03 01 01 00 62 
2018/03/21 14:43:22	BATEmulator(Send)	GetBatInfo	2 0 165 1 47 8 146 8 147 8 146 10 57 10 57 10 57 10 57 10 63 0 0 0 0 0 0 0 0 0 0 0 0 4 50 4 56 6 35 0 0 1 255 49 0 0 0 0 0 0 0 0 199 3 
2018/03/21 06:43:24	BATEmulator	GetBatInfoP(1)S(1)	02 00 5A 01 03 01 01 00 62 
2018/03/21 14:43:24	BATEmulator(Send)	GetBatInfo	2 0 165 1 47 8 146 8 147 8 146 10 57 10 57 10 57 10 57 10 63 0 0 0 0 0 0 0 0 0 0 0 0 4 50 4 56 6 35 0 0 1 255 49 0 0 0 0 0 0 0 0 199 3 
2018/03/21 06:43:25	BATEmulator	GetBatInfoP(1)S(1)	02 00 5A 01 03 01 01 00 62 
2018/03/21 14:43:25	BATEmulator(Send)	GetBatInfo	2 0 165 1 47 8 146 8 147 8 146 10 57 10 57 10 57 10 57 10 63 0 0 0 0 0 0 0 0 0 0 0 0 4 50 4 56 6 35 0 0 1 255 49 0 0 0 0 0 0 0 0 199 3 
2018/03/21 06:43:27	BATEmulator	GetBatInfoP(1)S(1)	02 00 5A 01 03 01 01 00 62 
2018/03/21 14:43:27	BATEmulator(Send)	GetBatInfo	2 0 165 1 47 8 146 8 147 8 146 10 57 10 57 10 57 10 57 10 63 0 0 0 0 0 0 0 0 0 0 0 0 4 50 4 56 6 35 0 0 1 255 49 0 0 0 0 0 0 0 0 199 3 
2018/03/21 06:43:28	BATEmulator	GetBatInfoP(1)S(1)	02 00 5A 01 03 01 01 00 62 
2018/03/21 14:43:28	BATEmulator(Send)	GetBatInfo	2 0 165 1 47 8 146 8 147 8 146 10 57 10 57 10 57 10 57 10 63 0 0 0 0 0 0 0 0 0 0 0 0 4 50 4 56 6 35 0 0 1 255 49 0 0 0 0 0 0 0 0 199 3 
2018/03/21 06:43:30	BATEmulator	GetBatInfoP(1)S(1)	02 00 5A 01 03 01 01 00 62 
2018/03/21 14:43:30	BATEmulator(Send)	GetBatInfo	2 0 165 1 47 8 146 8 147 8 146 10 57 10 57 10 57 10 57 10 63 0 0 0 0 0 0 0 0 0 0 0 0 4 50 4 56 6 35 0 0 1 255 49 0 0 0 0 0 0 0 0 199 3 
2018/03/21 06:43:32	BATEmulator	GetBatInfoP(1)S(1)	02 00 5A 01 03 01 01 00 62 
2018/03/21 14:43:32	BATEmulator(Send)	GetBatInfo	2 0 165 1 47 8 146 8 147 8 146 10 57 10 57 10 57 10 57 10 63 0 0 0 0 0 0 0 0 0 0 0 0 4 50 4 56 6 35 0 0 1 255 49 0 0 0 0 0 0 0 0 199 3 
2018/03/21 06:43:33	BATEmulator	GetBatInfoP(1)S(1)	02 00 5A 01 03 01 01 00 62 
2018/03/21 14:43:33	BATEmulator(Send)	GetBatInfo	2 0 165 1 47 8 146 8 147 8 146 10 57 10 57 10 57 10 57 10 63 0 0 0 0 0 0 0 0 0 0 0 0 4 50 4 56 6 35 0 0 1 255 49 0 0 0 0 0 0 0 0 199 3 
2018/03/21 06:43:35	BATEmulator	GetBatInfoP(1)S(1)	02 00 5A 01 03 01 01 00 62 
2018/03/21 14:43:35	BATEmulator(Send)	GetBatInfo	2 0 165 1 47 8 146 8 147 8 146 10 57 10 57 10 57 10 57 10 63 0 0 0 0 0 0 0 0 0 0 0 0 4 50 4 56 6 35 0 0 1 255 49 0 0 0 0 0 0 0 0 199 3 
2018/03/21 06:43:36	BATEmulator	GetBatInfoP(1)S(1)	02 00 5A 01 03 01 01 00 62 
2018/03/21 14:43:36	BATEmulator(Send)	GetBatInfo	2 0 165 1 47 8 146 8 147 8 146 10 57 10 57 10 57 10 57 10 63 0 0 0 0 0 0 0 0 0 0 0 0 4 50 4 56 6 35 0 0 1 255 49 0 0 0 0 0 0 0 0 199 3 
2018/03/21 06:43:38	BATEmulator	GetBatInfoP(1)S(1)	02 00 5A 01 03 01 01 00 62 
2018/03/21 14:43:38	BATEmulator(Send)	GetBatInfo	2 0 165 1 47 8 146 8 147 8 146 10 57 10 57 10 57 10 57 10 63 0 0 0 0 0 0 0 0 0 0 0 0 4 50 4 56 6 35 0 0 1 255 49 0 0 0 0 0 0 0 0 199 3 
2018/03/21 06:43:39	BATEmulator	GetBatInfoP(1)S(1)	02 00 5A 01 03 01 01 00 62 
2018/03/21 14:43:39	BATEmulator(Send)	GetBatInfo	2 0 165 1 47 8 146 8 147 8 146 10 57 10 57 10 57 10 57 10 63 0 0 0 0 0 0 0 0 0 0 0 0 4 50 4 56 6 35 0 0 1 255 49 0 0 0 0 0 0 0 0 199 3 
2018/03/21 06:44:16	BATEmulator	GetBatParam	02 00 5A 04 02 00 00 62 
2018/03/21 14:44:16	BATEmulator(Send)	GetBatParam	2 30 165 4 17 108 152 1 210 9 129 1 90 4 106 1 2 8 0 8 27 25 75 3 
2018/03/21 06:44:21	BATEmulator	GetBatInfoP(1)S(1)	02 1E 5A 01 03 01 01 00 80 
2018/03/21 14:44:21	BATEmulator(Send)	GetBatInfo	2 30 165 1 47 8 146 8 147 8 146 10 57 10 57 10 57 10 57 10 63 0 0 0 0 0 0 0 0 0 0 0 0 4 50 4 56 6 35 0 0 1 255 49 0 0 0 0 0 0 0 0 229 3 
2018/03/21 06:44:24	BATEmulator	GetBatInfoP(1)S(2)	02 1E 5A 01 03 01 02 00 81 
2018/03/21 14:44:24	BATEmulator(Send)	GetBatInfo	2 30 165 1 47 8 146 8 148 8 145 8 146 8 145 8 143 8 144 8 142 0 0 0 0 0 0 0 0 0 0 0 0 4 50 4 56 6 35 0 0 1 255 49 0 0 0 0 0 0 0 0 136 3 
2018/03/21 06:44:25	BATEmulator	GetBatAlarmStatus	02 1E 5A 05 02 00 00 81 
2018/03/21 14:44:25	BATEmulator(Send)	GetBatAlarmStatus	2 30 165 5 1 0 203 3 
2018/03/21 06:44:26	BATEmulator	GetBatInfoP(1)S(1)	02 1E 5A 01 03 01 01 00 80 
2018/03/21 14:44:26	BATEmulator(Send)	GetBatInfo	2 30 165 1 47 8 146 8 147 8 146 10 57 10 57 10 57 10 57 10 63 0 0 0 0 0 0 0 0 0 0 0 0 4 50 4 56 6 35 0 0 1 255 49 0 0 0 0 0 0 0 0 229 3 
2018/03/21 06:44:26	BATEmulator	GetBatInfoP(1)S(2)	02 1E 5A 01 03 01 02 00 81 
2018/03/21 14:44:26	BATEmulator(Send)	GetBatInfo	2 30 165 1 47 8 146 8 148 8 145 8 146 8 145 8 143 8 144 8 142 0 0 0 0 0 0 0 0 0 0 0 0 4 50 4 56 6 35 0 0 1 255 49 0 0 0 0 0 0 0 0 136 3 
2018/03/21 06:44:27	BATEmulator	GetBatAlarmStatus	02 1E 5A 05 02 00 00 81 
2018/03/21 14:44:27	BATEmulator(Send)	GetBatAlarmStatus	2 30 165 5 1 0 203 3 
2018/03/21 06:44:28	BATEmulator	GetBatInfoP(1)S(1)	02 1E 5A 01 03 01 01 00 80 
2018/03/21 14:44:28	BATEmulator(Send)	GetBatInfo	2 30 165 1 47 8 146 8 147 8 146 10 57 10 57 10 57 10 57 10 63 0 0 0 0 0 0 0 0 0 0 0 0 4 50 4 56 6 35 0 0 1 255 49 0 0 0 0 0 0 0 0 229 3 
2018/03/21 06:44:28	BATEmulator	GetBatInfoP(1)S(2)	02 1E 5A 01 03 01 02 00 81 
2018/03/21 14:44:28	BATEmulator(Send)	GetBatInfo	2 30 165 1 47 8 146 8 148 8 145 8 146 8 145 8 143 8 144 8 142 0 0 0 0 0 0 0 0 0 0 0 0 4 50 4 56 6 35 0 0 1 255 49 0 0 0 0 0 0 0 0 136 3 
2018/03/21 06:44:28	BATEmulator	GetBatAlarmStatus	02 1E 5A 05 02 00 00 81 
2018/03/21 14:44:28	BATEmulator(Send)	GetBatAlarmStatus	2 30 165 5 1 0 203 3 
2018/03/21 06:44:29	BATEmulator	GetBatInfoP(1)S(1)	02 1E 5A 01 03 01 01 00 80 
2018/03/21 14:44:29	BATEmulator(Send)	GetBatInfo	2 30 165 1 47 8 146 8 147 8 146 10 57 10 57 10 57 10 57 10 63 0 0 0 0 0 0 0 0 0 0 0 0 4 50 4 56 6 35 0 0 1 255 49 0 0 0 0 0 0 0 0 229 3 
2018/03/21 06:44:29	BATEmulator	GetBatInfoP(1)S(2)	02 1E 5A 01 03 01 02 00 81 
2018/03/21 14:44:29	BATEmulator(Send)	GetBatInfo	2 30 165 1 47 8 146 8 148 8 145 8 146 8 145 8 143 8 144 8 142 0 0 0 0 0 0 0 0 0 0 0 0 4 50 4 56 6 35 0 0 1 255 49 0 0 0 0 0 0 0 0 136 3 
2018/03/21 06:44:30	BATEmulator	GetBatAlarmStatus	02 1E 5A 05 02 00 00 81 
2018/03/21 14:44:30	BATEmulator(Send)	GetBatAlarmStatus	2 30 165 5 1 0 203 3 
2018/03/21 06:44:31	BATEmulator	GetBatInfoP(1)S(1)	02 1E 5A 01 03 01 01 00 80 
2018/03/21 14:44:31	BATEmulator(Send)	GetBatInfo	2 30 165 1 47 8 146 8 147 8 146 10 57 10 57 10 57 10 57 10 63 0 0 0 0 0 0 0 0 0 0 0 0 4 50 4 56 6 35 0 0 1 255 49 0 0 0 0 0 0 0 0 229 3 
2018/03/21 06:44:31	BATEmulator	GetBatInfoP(1)S(2)	02 1E 5A 01 03 01 02 00 81 
2018/03/21 14:44:31	BATEmulator(Send)	GetBatInfo	2 30 165 1 47 8 146 8 148 8 145 8 146 8 145 8 143 8 144 8 142 0 0 0 0 0 0 0 0 0 0 0 0 4 50 4 56 6 35 0 0 1 255 49 0 0 0 0 0 0 0 0 136 3 
2018/03/21 06:44:32	BATEmulator	GetBatAlarmStatus	02 1E 5A 05 02 00 00 81 
2018/03/21 14:44:32	BATEmulator(Send)	GetBatAlarmStatus	2 30 165 5 1 0 203 3 
2018/03/21 06:44:33	BATEmulator	GetBatInfoP(1)S(1)	02 1E 5A 01 03 01 01 00 80 
2018/03/21 14:44:33	BATEmulator(Send)	GetBatInfo	2 30 165 1 47 8 146 8 147 8 146 10 57 10 57 10 57 10 57 10 63 0 0 0 0 0 0 0 0 0 0 0 0 4 50 4 56 6 35 0 0 1 255 49 0 0 0 0 0 0 0 0 229 3 
2018/03/21 06:44:33	BATEmulator	GetBatInfoP(1)S(2)	02 1E 5A 01 03 01 02 00 81 
2018/03/21 14:44:33	BATEmulator(Send)	GetBatInfo	2 30 165 1 47 8 146 8 148 8 145 8 146 8 145 8 143 8 144 8 142 0 0 0 0 0 0 0 0 0 0 0 0 4 50 4 56 6 35 0 0 1 255 49 0 0 0 0 0 0 0 0 136 3 
2018/03/21 06:44:33	BATEmulator	GetBatAlarmStatus	02 1E 5A 05 02 00 00 81 
2018/03/21 14:44:33	BATEmulator(Send)	GetBatAlarmStatus	2 30 165 5 1 0 203 3 
2018/03/21 06:44:34	BATEmulator	GetBatInfoP(1)S(1)	02 1E 5A 01 03 01 01 00 80 
2018/03/21 14:44:34	BATEmulator(Send)	GetBatInfo	2 30 165 1 47 8 146 8 147 8 146 10 57 10 57 10 57 10 57 10 63 0 0 0 0 0 0 0 0 0 0 0 0 4 50 4 56 6 35 0 0 1 255 49 0 0 0 0 0 0 0 0 229 3 
2018/03/21 06:44:34	BATEmulator	GetBatInfoP(1)S(2)	02 1E 5A 01 03 01 02 00 81 
2018/03/21 14:44:34	BATEmulator(Send)	GetBatInfo	2 30 165 1 47 8 146 8 148 8 145 8 146 8 145 8 143 8 144 8 142 0 0 0 0 0 0 0 0 0 0 0 0 4 50 4 56 6 35 0 0 1 255 49 0 0 0 0 0 0 0 0 136 3 
2018/03/21 06:44:35	BATEmulator	GetBatAlarmStatus	02 1E 5A 05 02 00 00 81 
2018/03/21 14:44:35	BATEmulator(Send)	GetBatAlarmStatus	2 30 165 5 1 0 203 3 
2018/03/21 06:44:36	BATEmulator	GetBatInfoP(1)S(1)	02 1E 5A 01 03 01 01 00 80 
2018/03/21 14:44:36	BATEmulator(Send)	GetBatInfo	2 30 165 1 47 8 146 8 147 8 146 10 57 10 57 10 57 10 57 10 63 0 0 0 0 0 0 0 0 0 0 0 0 4 50 4 56 6 35 0 0 1 255 49 0 0 0 0 0 0 0 0 229 3 
2018/03/21 06:44:36	BATEmulator	GetBatInfoP(1)S(2)	02 1E 5A 01 03 01 02 00 81 
2018/03/21 14:44:36	BATEmulator(Send)	GetBatInfo	2 30 165 1 47 8 146 8 148 8 145 8 146 8 145 8 143 8 144 8 142 0 0 0 0 0 0 0 0 0 0 0 0 4 50 4 56 6 35 0 0 1 255 49 0 0 0 0 0 0 0 0 136 3 
2018/03/21 06:44:37	BATEmulator	GetBatAlarmStatus	02 1E 5A 05 02 00 00 81 
2018/03/21 14:44:37	BATEmulator(Send)	GetBatAlarmStatus	2 30 165 5 1 0 203 3 
2018/03/21 06:44:38	BATEmulator	GetBatInfoP(1)S(1)	02 1E 5A 01 03 01 01 00 80 
2018/03/21 14:44:38	BATEmulator(Send)	GetBatInfo	2 30 165 1 47 8 146 8 147 8 146 10 57 10 57 10 57 10 57 10 62 0 0 0 0 0 0 0 0 0 0 0 0 4 50 4 56 6 35 0 0 1 255 49 0 0 0 0 0 0 0 0 228 3 
2018/03/21 06:44:38	BATEmulator	GetBatInfoP(1)S(2)	02 1E 5A 01 03 01 02 00 81 
2018/03/21 14:44:38	BATEmulator(Send)	GetBatInfo	2 30 165 1 47 8 146 8 148 8 145 8 146 8 145 8 143 8 144 8 142 0 0 0 0 0 0 0 0 0 0 0 0 4 50 4 56 6 35 0 0 1 255 49 0 0 0 0 0 0 0 0 136 3 
2018/03/21 06:44:38	BATEmulator	GetBatAlarmStatus	02 1E 5A 05 02 00 00 81 
2018/03/21 14:44:38	BATEmulator(Send)	GetBatAlarmStatus	2 30 165 5 1 0 203 3 
2018/03/21 06:44:39	BATEmulator	GetBatInfoP(1)S(1)	02 1E 5A 01 03 01 01 00 80 
2018/03/21 14:44:39	BATEmulator(Send)	GetBatInfo	2 30 165 1 47 8 146 8 147 8 146 10 57 10 57 10 57 10 57 10 62 0 0 0 0 0 0 0 0 0 0 0 0 4 50 4 56 6 35 0 0 1 255 49 0 0 0 0 0 0 0 0 228 3 
2018/03/21 06:44:39	BATEmulator	GetBatInfoP(1)S(2)	02 1E 5A 01 03 01 02 00 81 
2018/03/21 14:44:39	BATEmulator(Send)	GetBatInfo	2 30 165 1 47 8 146 8 148 8 145 8 146 8 145 8 143 8 144 8 142 0 0 0 0 0 0 0 0 0 0 0 0 4 50 4 56 6 35 0 0 1 255 49 0 0 0 0 0 0 0 0 136 3 
2018/03/21 06:44:40	BATEmulator	GetBatAlarmStatus	02 1E 5A 05 02 00 00 81 
2018/03/21 14:44:40	BATEmulator(Send)	GetBatAlarmStatus	2 30 165 5 1 0 203 3 
2018/03/21 06:44:41	BATEmulator	GetBatInfoP(1)S(1)	02 1E 5A 01 03 01 01 00 80 
2018/03/21 14:44:41	BATEmulator(Send)	GetBatInfo	2 30 165 1 47 8 146 8 147 8 146 10 57 10 57 10 57 10 57 10 62 0 0 0 0 0 0 0 0 0 0 0 0 4 50 4 56 6 35 0 0 1 255 49 0 0 0 0 0 0 0 0 228 3 
2018/03/21 06:44:41	BATEmulator	GetBatInfoP(1)S(2)	02 1E 5A 01 03 01 02 00 81 
2018/03/21 14:44:41	BATEmulator(Send)	GetBatInfo	2 30 165 1 47 8 146 8 148 8 145 8 146 8 145 8 143 8 144 8 142 0 0 0 0 0 0 0 0 0 0 0 0 4 50 4 56 6 35 0 0 1 255 49 0 0 0 0 0 0 0 0 136 3 
2018/03/21 06:44:42	BATEmulator	GetBatAlarmStatus	02 1E 5A 05 02 00 00 81 
2018/03/21 14:44:42	BATEmulator(Send)	GetBatAlarmStatus	2 30 165 5 1 0 203 3 
2018/03/21 06:44:43	BATEmulator	GetBatInfoP(1)S(1)	02 1E 5A 01 03 01 01 00 80 
2018/03/21 14:44:43	BATEmulator(Send)	GetBatInfo	2 30 165 1 47 8 146 8 147 8 146 10 57 10 57 10 57 10 57 10 62 0 0 0 0 0 0 0 0 0 0 0 0 4 50 4 56 6 35 0 0 1 255 49 0 0 0 0 0 0 0 0 228 3 
2018/03/21 06:44:43	BATEmulator	GetBatInfoP(1)S(2)	02 1E 5A 01 03 01 02 00 81 
2018/03/21 14:44:43	BATEmulator(Send)	GetBatInfo	2 30 165 1 47 8 146 8 148 8 145 8 146 8 145 8 143 8 144 8 142 0 0 0 0 0 0 0 0 0 0 0 0 4 50 4 56 6 35 0 0 1 255 49 0 0 0 0 0 0 0 0 136 3 
2018/03/21 06:44:44	BATEmulator	GetBatAlarmStatus	02 1E 5A 05 02 00 00 81 
2018/03/21 14:44:44	BATEmulator(Send)	GetBatAlarmStatus	2 30 165 5 1 0 203 3 
2018/03/21 06:44:44	BATEmulator	GetBatInfoP(1)S(1)	02 1E 5A 01 03 01 01 00 80 
2018/03/21 14:44:44	BATEmulator(Send)	GetBatInfo	2 30 165 1 47 8 146 8 147 8 146 10 57 10 57 10 57 10 57 10 62 0 0 0 0 0 0 0 0 0 0 0 0 4 50 4 56 6 35 0 0 1 255 49 0 0 0 0 0 0 0 0 228 3 
2018/03/21 06:44:44	BATEmulator	GetBatInfoP(1)S(2)	02 1E 5A 01 03 01 02 00 81 
2018/03/21 14:44:44	BATEmulator(Send)	GetBatInfo	2 30 165 1 47 8 146 8 148 8 145 8 146 8 145 8 143 8 144 8 142 0 0 0 0 0 0 0 0 0 0 0 0 4 50 4 56 6 35 0 0 1 255 49 0 0 0 0 0 0 0 0 136 3 
2018/03/21 06:44:45	BATEmulator	GetBatAlarmStatus	02 1E 5A 05 02 00 00 81 
2018/03/21 14:44:45	BATEmulator(Send)	GetBatAlarmStatus	2 30 165 5 1 0 203 3 
2018/03/21 06:44:46	BATEmulator	GetBatInfoP(1)S(1)	02 1E 5A 01 03 01 01 00 80 
2018/03/21 14:44:46	BATEmulator(Send)	GetBatInfo	2 30 165 1 47 8 146 8 147 8 146 10 57 10 57 10 57 10 57 10 62 0 0 0 0 0 0 0 0 0 0 0 0 4 50 4 56 6 35 0 0 1 255 49 0 0 0 0 0 0 0 0 228 3 
2018/03/21 06:44:46	BATEmulator	GetBatInfoP(1)S(2)	02 1E 5A 01 03 01 02 00 81 
2018/03/21 14:44:46	BATEmulator(Send)	GetBatInfo	2 30 165 1 47 8 146 8 148 8 145 8 146 8 145 8 143 8 144 8 142 0 0 0 0 0 0 0 0 0 0 0 0 4 50 4 56 6 35 0 0 1 255 49 0 0 0 0 0 0 0 0 136 3 
2018/03/21 06:44:47	BATEmulator	GetBatAlarmStatus	02 1E 5A 05 02 00 00 81 
2018/03/21 14:44:47	BATEmulator(Send)	GetBatAlarmStatus	2 30 165 5 1 0 203 3 
2018/03/21 06:44:48	BATEmulator	GetBatInfoP(1)S(1)	02 1E 5A 01 03 01 01 00 80 
2018/03/21 14:44:48	BATEmulator(Send)	GetBatInfo	2 30 165 1 47 8 146 8 147 8 146 10 57 10 57 10 57 10 57 10 62 0 0 0 0 0 0 0 0 0 0 0 0 4 50 4 56 6 35 0 0 1 255 49 0 0 0 0 0 0 0 0 228 3 
2018/03/21 06:44:48	BATEmulator	GetBatInfoP(1)S(2)	02 1E 5A 01 03 01 02 00 81 
2018/03/21 14:44:48	BATEmulator(Send)	GetBatInfo	2 30 165 1 47 8 146 8 148 8 145 8 146 8 145 8 143 8 144 8 142 0 0 0 0 0 0 0 0 0 0 0 0 4 50 4 56 6 35 0 0 1 255 49 0 0 0 0 0 0 0 0 136 3 
